…
    ## Rows: 52179 Columns: 12
    ## ── Column specification ────────────────────────────────────────────────────────
    ## Delimiter: ","
    ## chr (9): uid, victim_last, victim_first, victim_race, victim_age, victim_sex...
    ## dbl (3): reported_date, lat, lon
    ## 
    ## ℹ Use `spec()` to retrieve the full column specification for this data.
    ## ℹ Specify the column types or set `show_col_types = FALSE` to quiet this message.

``` r
homi_data
```

    ## # A tibble: 52,179 × 12
    ##    uid   repor…¹ victi…² victi…³ victi…⁴ victi…⁵ victi…⁶ city  state   lat   lon
    ##    <chr>   <dbl> <chr>   <chr>   <chr>   <chr>   <chr>   <chr> <chr> <dbl> <dbl>
    ##  1 Alb-…  2.01e7 GARCIA  JUAN    Hispan… 78      Male    Albu… NM     35.1 -107.
    ##  2 Alb-…  2.01e7 MONTOYA CAMERON Hispan… 17      Male    Albu… NM     35.1 -107.
    ##  3 Alb-…  2.01e7 SATTER… VIVIANA White   15      Female  Albu… NM     35.1 -107.
    ##  4 Alb-…  2.01e7 MENDIO… CARLOS  Hispan… 32      Male    Albu… NM     35.1 -107.
    ##  5 Alb-…  2.01e7 MULA    VIVIAN  White   72      Female  Albu… NM     35.1 -107.
    ##  6 Alb-…  2.01e7 BOOK    GERALD… White   91      Female  Albu… NM     35.2 -107.
    ##  7 Alb-…  2.01e7 MALDON… DAVID   Hispan… 52      Male    Albu… NM     35.1 -107.
    ##  8 Alb-…  2.01e7 MALDON… CONNIE  Hispan… 52      Female  Albu… NM     35.1 -107.
    ##  9 Alb-…  2.01e7 MARTIN… GUSTAVO White   56      Male    Albu… NM     35.1 -107.
    ## 10 Alb-…  2.01e7 HERRERA ISRAEL  Hispan… 43      Male    Albu… NM     35.1 -107.
    ## # … with 52,169 more rows, 1 more variable: disposition <chr>, and abbreviated
    ## #   variable names ¹​reported_date, ²​victim_last, ³​victim_first, ⁴​victim_race,
    ## #   ⁵​victim_age, ⁶​victim_sex
…
``` r
homi_data = homi_data %>%
  filter(victim_age != "Unknown",
         victim_race %in% c("White", "Black"),
         !victim_sex == "Unknown") %>%
  mutate(city_state = str_c(city, state, sep = ", "),
         resolved = !disposition %in% c("Closed without arrest", "Open/No arrest"),
         victim_age = as.numeric(victim_age)) %>%
  filter(!city_state %in% c("Dallas, TX", "Phoenix, AZ", "Kansas City, MO", "Tulsa, AL"))

homi_data
```

    ## # A tibble: 39,362 × 14
    ##    uid   repor…¹ victi…² victi…³ victi…⁴ victi…⁵ victi…⁶ city  state   lat   lon
    ##    <chr>   <dbl> <chr>   <chr>   <chr>     <dbl> <chr>   <chr> <chr> <dbl> <dbl>
    ##  1 Alb-…  2.01e7 SATTER… VIVIANA White        15 Female  Albu… NM     35.1 -107.
    ##  2 Alb-…  2.01e7 MULA    VIVIAN  White        72 Female  Albu… NM     35.1 -107.
    ##  3 Alb-…  2.01e7 BOOK    GERALD… White        91 Female  Albu… NM     35.2 -107.
    ##  4 Alb-…  2.01e7 MARTIN… GUSTAVO White        56 Male    Albu… NM     35.1 -107.
    ##  5 Alb-…  2.01e7 GRAY    STEFAN… White        43 Female  Albu… NM     35.1 -107.
    ##  6 Alb-…  2.01e7 DAVID   LARRY   White        52 Male    Albu… NM     NA     NA 
    ##  7 Alb-…  2.01e7 BRITO   ELIZAB… White        22 Female  Albu… NM     35.1 -107.
    ##  8 Alb-…  2.01e7 KING    TEVION  Black        15 Male    Albu… NM     35.1 -107.
    ##  9 Alb-…  2.01e7 BOYKIN  CEDRIC  Black        25 Male    Albu… NM     35.1 -107.
    ## 10 Alb-…  2.01e7 BARRAG… MIGUEL  White        20 Male    Albu… NM     35.1 -107.
    ## # … with 39,352 more rows, 3 more variables: disposition <chr>,
    ## #   city_state <chr>, resolved <lgl>, and abbreviated variable names
    ## #   ¹​reported_date, ²​victim_last, ³​victim_first, ⁴​victim_race, ⁵​victim_age,
    ## #   ⁶​victim_sex
…
Then use the map function to obstain model fits for all city_states in
the data set:

``` r
city_result = tibble(
  city_states = unique(homi_data$city_state),
  model_fits = map(city_states, city_glm)
) %>% unnest(model_fits) %>%
  filter(term == "victim_sexMale")

city_result 
```

    ## # A tibble: 47 × 5
    ##    city_states     term              OR conf_low conf_high
    ##    <chr>           <chr>          <dbl>    <dbl>     <dbl>
    ##  1 Albuquerque, NM victim_sexMale 1.77     0.825     3.76 
    ##  2 Atlanta, GA     victim_sexMale 1.00     0.680     1.46 
    ##  3 Baltimore, MD   victim_sexMale 0.426    0.324     0.558
    ##  4 Baton Rouge, LA victim_sexMale 0.381    0.204     0.684
    ##  5 Birmingham, AL  victim_sexMale 0.870    0.571     1.31 
    ##  6 Boston, MA      victim_sexMale 0.667    0.351     1.26 
    ##  7 Buffalo, NY     victim_sexMale 0.521    0.288     0.936
    ##  8 Charlotte, NC   victim_sexMale 0.884    0.551     1.39 
    ##  9 Chicago, IL     victim_sexMale 0.410    0.336     0.501
    ## 10 Cincinnati, OH  victim_sexMale 0.400    0.231     0.667
    ## # … with 37 more rows
…
    ## Rows: 4342 Columns: 20
    ## ── Column specification ────────────────────────────────────────────────────────
    ## Delimiter: ","
    ## dbl (20): babysex, bhead, blength, bwt, delwt, fincome, frace, gaweeks, malf...
    ## 
    ## ℹ Use `spec()` to retrieve the full column specification for this data.
    ## ℹ Specify the column types or set `show_col_types = FALSE` to quiet this message.

``` r
bwt_data
```

    ## # A tibble: 4,342 × 20
    ##    babysex bhead blength   bwt delwt fincome frace gaweeks malform menarche
    ##      <dbl> <dbl>   <dbl> <dbl> <dbl>   <dbl> <dbl>   <dbl>   <dbl>    <dbl>
    ##  1       2    34      51  3629   177      35     1    39.9       0       13
    ##  2       1    34      48  3062   156      65     2    25.9       0       14
    ##  3       2    36      50  3345   148      85     1    39.9       0       12
    ##  4       1    34      52  3062   157      55     1    40         0       14
    ##  5       2    34      52  3374   156       5     1    41.6       0       13
    ##  6       1    33      52  3374   129      55     1    40.7       0       12
    ##  7       2    33      46  2523   126      96     2    40.3       0       14
    ##  8       2    33      49  2778   140       5     1    37.4       0       12
    ##  9       1    36      52  3515   146      85     1    40.3       0       11
    ## 10       1    33      50  3459   169      75     2    40.7       0       12
    ## # … with 4,332 more rows, and 10 more variables: mheight <dbl>, momage <dbl>,
    ## #   mrace <dbl>, parity <dbl>, pnumlbw <dbl>, pnumsga <dbl>, ppbmi <dbl>,
    ## #   ppwt <dbl>, smoken <dbl>, wtgain <dbl>
…
There is no missing values in the data set. Some factor variables were
entered as numeric variables in the data set, so we proceed to recoding
them to factors:

``` r
bwt_data = bwt_data %>%
  mutate(babysex = fct_recode(factor(babysex), male = "1", female = "2"),
         frace = fct_recode(factor(frace), white = "1", black = "2", asian = "3", puerto_rican = "4", other = "8", unknown = "9"),
         malform = fct_recode(factor(malform), absent = "0", present = "1"),
         mrace = fct_recode(factor(mrace), white = "1", black = "2", asian = "3", puerto_rican = "4", other = "8")) 

bwt_data
```

    ## # A tibble: 4,342 × 20
    ##    babysex bhead blength   bwt delwt fincome frace gaweeks malform menarche
    ##    <fct>   <dbl>   <dbl> <dbl> <dbl>   <dbl> <fct>   <dbl> <fct>      <dbl>
    ##  1 female     34      51  3629   177      35 white    39.9 absent        13
    ##  2 male       34      48  3062   156      65 black    25.9 absent        14
    ##  3 female     36      50  3345   148      85 white    39.9 absent        12
    ##  4 male       34      52  3062   157      55 white    40   absent        14
    ##  5 female     34      52  3374   156       5 white    41.6 absent        13
    ##  6 male       33      52  3374   129      55 white    40.7 absent        12
    ##  7 female     33      46  2523   126      96 black    40.3 absent        14
    ##  8 female     33      49  2778   140       5 white    37.4 absent        12
    ##  9 male       36      52  3515   146      85 white    40.3 absent        11
    ## 10 male       33      50  3459   169      75 black    40.7 absent        12
    ## # … with 4,332 more rows, and 10 more variables: mheight <dbl>, momage <dbl>,
    ## #   mrace <fct>, parity <dbl>, pnumlbw <dbl>, pnumsga <dbl>, ppbmi <dbl>,
    ## #   ppwt <dbl>, smoken <dbl>, wtgain <dbl>
…
# uses head circumference, length, sex, and all interactions
model2 = lm(bwt ~ bhead + blength + babysex + 
              bhead*blength + bhead*babysex + blength*babysex +
              bhead*blength*babysex,
            data = bwt_data)
```

Split the data into 100 training-test sets:

``` r
cv_df = crossv_mc(bwt_data, 100)
cv_df
```

    ## # A tibble: 100 × 3
    ##    train                   test                  .id  
    ##    <list>                  <list>                <chr>
    ##  1 <resample [3,473 x 20]> <resample [869 x 20]> 001  
    ##  2 <resample [3,473 x 20]> <resample [869 x 20]> 002  
    ##  3 <resample [3,473 x 20]> <resample [869 x 20]> 003  
    ##  4 <resample [3,473 x 20]> <resample [869 x 20]> 004  
    ##  5 <resample [3,473 x 20]> <resample [869 x 20]> 005  
    ##  6 <resample [3,473 x 20]> <resample [869 x 20]> 006  
    ##  7 <resample [3,473 x 20]> <resample [869 x 20]> 007  
    ##  8 <resample [3,473 x 20]> <resample [869 x 20]> 008  
    ##  9 <resample [3,473 x 20]> <resample [869 x 20]> 009  
    ## 10 <resample [3,473 x 20]> <resample [869 x 20]> 010  
    ## # … with 90 more rows

Then convert the training and testing set into data frames:

``` r
cv_df = cv_df %>%
  mutate(train = map(train, as_tibble),
         test = map(test, as_tibble))

cv_df
```

    ## # A tibble: 100 × 3
    ##    train                 test                .id  
    ##    <list>                <list>              <chr>
    ##  1 <tibble [3,473 × 20]> <tibble [869 × 20]> 001  
    ##  2 <tibble [3,473 × 20]> <tibble [869 × 20]> 002  
    ##  3 <tibble [3,473 × 20]> <tibble [869 × 20]> 003  
    ##  4 <tibble [3,473 × 20]> <tibble [869 × 20]> 004  
    ##  5 <tibble [3,473 × 20]> <tibble [869 × 20]> 005  
    ##  6 <tibble [3,473 × 20]> <tibble [869 × 20]> 006  
    ##  7 <tibble [3,473 × 20]> <tibble [869 × 20]> 007  
    ##  8 <tibble [3,473 × 20]> <tibble [869 × 20]> 008  
    ##  9 <tibble [3,473 × 20]> <tibble [869 × 20]> 009  
    ## 10 <tibble [3,473 × 20]> <tibble [869 × 20]> 010  
    ## # … with 90 more rows
…
``` r
cv_df = cv_df %>%
  mutate(stepwise_fit = map(train, ~lm(bwt ~ bhead + blength + mrace + delwt + gaweeks + smoken + ppbmi + babysex + parity + ppwt + fincome, data = .x)),
         mod1_fit = map(train, ~lm(bwt ~ blength + gaweeks, data = .x)),
         mod2_fit = map(train, ~lm(bwt ~ bhead + blength + babysex + bhead*blength + bhead*babysex + blength*babysex + bhead*blength*babysex, data = .x))) %>%
  mutate(stepwise_rmse = map2_dbl(stepwise_fit, test, ~rmse(model = .x, data = .y)),
         mod1_rmse = map2_dbl(mod1_fit, test, ~rmse(model = .x, data = .y)),
         mod2_rmse = map2_dbl(mod2_fit, test, ~rmse(model = .x, data = .y)))
  
cv_df
```

    ## # A tibble: 100 × 9
    ##    train    test     .id   stepwise_fit mod1_fit mod2_…¹ stepw…² mod1_…³ mod2_…⁴
    ##    <list>   <list>   <chr> <list>       <list>   <list>    <dbl>   <dbl>   <dbl>
    ##  1 <tibble> <tibble> 001   <lm>         <lm>     <lm>       269.    340.    283.
    ##  2 <tibble> <tibble> 002   <lm>         <lm>     <lm>       282.    362.    300.
    ##  3 <tibble> <tibble> 003   <lm>         <lm>     <lm>       279.    326.    297.
    ##  4 <tibble> <tibble> 004   <lm>         <lm>     <lm>       285.    334.    303.
    ##  5 <tibble> <tibble> 005   <lm>         <lm>     <lm>       293.    362.    310.
    ##  6 <tibble> <tibble> 006   <lm>         <lm>     <lm>       273.    337.    285.
    ##  7 <tibble> <tibble> 007   <lm>         <lm>     <lm>       281.    344.    299.
    ##  8 <tibble> <tibble> 008   <lm>         <lm>     <lm>       274.    337.    289.
    ##  9 <tibble> <tibble> 009   <lm>         <lm>     <lm>       267.    324.    282.
    ## 10 <tibble> <tibble> 010   <lm>         <lm>     <lm>       275.    333.    290.
    ## # … with 90 more rows, and abbreviated variable names ¹​mod2_fit,
    ## #   ²​stepwise_rmse, ³​mod1_rmse, ⁴​mod2_rmse
…
